fs/compat_ioctl.c: In function ‘serial_struct_ioctl’:
fs/compat_ioctl.c:611:38: warning: typedef ‘SS’ locally defined but not used [-Wunused-local-typedefs]
         typedef struct serial_struct SS;
                                      ^
Setup is 15200 bytes (padded to 15360 bytes).
System is 5185 kB
CRC b41456ba

real	98m1.291s
user	88m58.404s
sys	8m18.699s
