fs/compat_ioctl.c: In function ‘serial_struct_ioctl’:
fs/compat_ioctl.c:611:38: warning: typedef ‘SS’ locally defined but not used [-Wunused-local-typedefs]
         typedef struct serial_struct SS;
                                      ^
Setup is 15200 bytes (padded to 15360 bytes).
System is 5185 kB
CRC 63a01cc3

real	9m50.183s
user	8m49.048s
sys	0m56.812s
