fs/compat_ioctl.c: In function ‘serial_struct_ioctl’:
fs/compat_ioctl.c:611:38: warning: typedef ‘SS’ locally defined but not used [-Wunused-local-typedefs]
         typedef struct serial_struct SS;
                                      ^
Setup is 15200 bytes (padded to 15360 bytes).
System is 5185 kB
CRC 5bc22e49

real	10m11.638s
user	9m18.581s
sys	1m1.707s
