fs/compat_ioctl.c: In function ‘serial_struct_ioctl’:
fs/compat_ioctl.c:611:38: warning: typedef ‘SS’ locally defined but not used [-Wunused-local-typedefs]
         typedef struct serial_struct SS;
                                      ^
Setup is 15200 bytes (padded to 15360 bytes).
System is 5185 kB
CRC 80556556

real	10m4.244s
user	9m2.449s
sys	0m58.219s
