fs/compat_ioctl.c: In function ‘serial_struct_ioctl’:
fs/compat_ioctl.c:611:38: warning: typedef ‘SS’ locally defined but not used [-Wunused-local-typedefs]
         typedef struct serial_struct SS;
                                      ^
Setup is 15200 bytes (padded to 15360 bytes).
System is 5185 kB
CRC 787b563c

real	10m24.023s
user	9m31.674s
sys	1m3.026s
