MemTotal:        8175600 kB
MemFree:         7344572 kB
Buffers:           40080 kB
Cached:           616908 kB
SwapCached:            0 kB
Active:           263988 kB
Inactive:         459356 kB
Active(anon):      66424 kB
Inactive(anon):      276 kB
Active(file):     197564 kB
Inactive(file):   459080 kB
Unevictable:           0 kB
Mlocked:               0 kB
SwapTotal:             0 kB
SwapFree:              0 kB
Dirty:             57336 kB
Writeback:         18652 kB
AnonPages:         66352 kB
Mapped:             6724 kB
Shmem:               348 kB
Slab:              48264 kB
SReclaimable:      36780 kB
SUnreclaim:        11484 kB
KernelStack:         984 kB
PageTables:         2492 kB
NFS_Unstable:          0 kB
Bounce:                0 kB
WritebackTmp:          0 kB
CommitLimit:     4087800 kB
Committed_AS:     117452 kB
VmallocTotal:   34359738367 kB
VmallocUsed:       14836 kB
VmallocChunk:   34359719803 kB
HardwareCorrupted:     0 kB
AnonHugePages:     49152 kB
HugePages_Total:       0
HugePages_Free:        0
HugePages_Rsvd:        0
HugePages_Surp:        0
Hugepagesize:       2048 kB
DirectMap4k:       28672 kB
DirectMap2M:     8491008 kB
